{
  "saved": {
    "arkivskaper-temp-d-formidling": {
      "type": "Arkivskaper",
      "id": "70825",
      "version": "3",
      "fields": {
        "uuid": "bfef8b37-107c-40bb-b31c-61b8b59a4c30",
        "opprettetDato": "2022-11-09T17:33:55.293+0100",
        "opprettetAv": "UiB ITA",
        "opprettetAvBrukerIdent": "integrasjon@uib.no",
        "arkivskaperIdent": "UHS-d-formidling",
        "arkivskaperNavn": "UHS-d-formidling"
      },
      "links": {
        "refArkiv": 70826
      }
    },
    "arkiv-temp-d-formidling": {
      "type": "Arkiv",
      "id": "70826",
      "version": "4",
      "fields": {
        "uuid": "7d40920a-71bf-4a22-a18d-1895570ed123",
        "opprettetDato": "2022-11-09T17:33:55.279+0100",
        "opprettetAv": "UiB ITA",
        "opprettetAvBrukerIdent": "integrasjon@uib.no",
        "tittel": "d-formidling",
        "arkivstatus": "O",
        "dokumentmedium": "E"
      },
      "links": {}
    },
    "arkivskaper-temp-b-forskning": {
      "type": "Arkivskaper",
      "id": "70827",
      "version": "3",
      "fields": {
        "uuid": "acb03c16-9034-4fbc-87a4-d0c5181e83ad",
        "opprettetDato": "2022-11-09T17:33:55.293+0100",
        "opprettetAv": "UiB ITA",
        "opprettetAvBrukerIdent": "integrasjon@uib.no",
        "arkivskaperIdent": "UHS-b-forskning",
        "arkivskaperNavn": "UHS-b-forskning"
      },
      "links": {
        "refArkiv": 70828
      }
    },
    "arkiv-temp-b-forskning": {
      "type": "Arkiv",
      "id": "70828",
      "version": "4",
      "fields": {
        "uuid": "d1ae3641-e9f6-4a33-924f-538f390dc87d",
        "opprettetDato": "2022-11-09T17:33:55.283+0100",
        "opprettetAv": "UiB ITA",
        "opprettetAvBrukerIdent": "integrasjon@uib.no",
        "tittel": "b-forskning",
        "arkivstatus": "O",
        "dokumentmedium": "E"
      },
      "links": {}
    },
    "arkivskaper-temp-c-utdanning": {
      "type": "Arkivskaper",
      "id": "70829",
      "version": "3",
      "fields": {
        "uuid": "f648fe80-82d3-4326-965c-e533fc3ab8a8",
        "opprettetDato": "2022-11-09T17:33:55.293+0100",
        "opprettetAv": "UiB ITA",
        "opprettetAvBrukerIdent": "integrasjon@uib.no",
        "arkivskaperIdent": "UHS-c-utdanning",
        "arkivskaperNavn": "UHS-c-utdanning"
      },
      "links": {
        "refArkiv": 70830
      }
    },
    "arkiv-temp-c-utdanning": {
      "type": "Arkiv",
      "id": "70830",
      "version": "4",
      "fields": {
        "uuid": "7fbee3a5-0116-4a86-95ee-81d984a963b8",
        "opprettetDato": "2022-11-09T17:33:55.286+0100",
        "opprettetAv": "UiB ITA",
        "opprettetAvBrukerIdent": "integrasjon@uib.no",
        "tittel": "c-utdanning",
        "arkivstatus": "O",
        "dokumentmedium": "E"
      },
      "links": {}
    },
    "arkivskaper-temp-e-museum-og-samling": {
      "type": "Arkivskaper",
      "id": "70831",
      "version": "3",
      "fields": {
        "uuid": "a5fa0d6f-082f-4ace-b19f-b612bf0770ac",
        "opprettetDato": "2022-11-09T17:33:55.293+0100",
        "opprettetAv": "UiB ITA",
        "opprettetAvBrukerIdent": "integrasjon@uib.no",
        "arkivskaperIdent": "UHS-e-museum-og-samling",
        "arkivskaperNavn": "UHS-e-museum-og-samling"
      },
      "links": {
        "refArkiv": 70832
      }
    },
    "arkiv-temp-e-museum-og-samling": {
      "type": "Arkiv",
      "id": "70832",
      "version": "4",
      "fields": {
        "uuid": "8d9d7349-e641-40e8-a86e-8aaa2a1eeeb7",
        "opprettetDato": "2022-11-09T17:33:55.289+0100",
        "opprettetAv": "UiB ITA",
        "opprettetAvBrukerIdent": "integrasjon@uib.no",
        "tittel": "e-museum-og-samling",
        "arkivstatus": "O",
        "dokumentmedium": "E"
      },
      "links": {}
    },
    "arkivskaper-temp-a-internadministrasjon": {
      "type": "Arkivskaper",
      "id": "70833",
      "version": "3",
      "fields": {
        "uuid": "7176cd9e-3655-4cd2-9714-879383f818c5",
        "opprettetDato": "2022-11-09T17:33:55.293+0100",
        "opprettetAv": "UiB ITA",
        "opprettetAvBrukerIdent": "integrasjon@uib.no",
        "arkivskaperIdent": "UHS-a-internadministrasjon",
        "arkivskaperNavn": "UHS-a-internadministrasjon"
      },
      "links": {
        "refArkiv": 70834
      }
    },
    "arkiv-temp-a-internadministrasjon": {
      "type": "Arkiv",
      "id": "70834",
      "version": "4",
      "fields": {
        "uuid": "93b94027-51db-484e-91dd-ae93c88526fe",
        "opprettetDato": "2022-11-09T17:33:55.291+0100",
        "opprettetAv": "UiB ITA",
        "opprettetAvBrukerIdent": "integrasjon@uib.no",
        "tittel": "a-internadministrasjon",
        "arkivstatus": "O",
        "dokumentmedium": "E"
      },
      "links": {}
    },
    "klassifikasjonssystem-temp-id-FUP": {
      "type": "Klassifikasjonssystem",
      "id": "70835",
      "version": "2",
      "fields": {
        "uuid": "dd4fa402-107a-433a-b2a4-6bb153132d76",
        "opprettetDato": "2022-11-09T17:33:55.279+0100",
        "opprettetAv": "UiB ITA",
        "opprettetAvBrukerIdent": "integrasjon@uib.no",
        "tittel": "FUP"
      },
      "links": {}
    },
    "klassifikasjonssystem-temp-id-Person": {
      "type": "Klassifikasjonssystem",
      "id": "70836",
      "version": "2",
      "fields": {
        "uuid": "dd233505-82af-40df-a995-6d898181fab5",
        "opprettetDato": "2022-11-09T17:33:55.279+0100",
        "opprettetAv": "UiB ITA",
        "opprettetAvBrukerIdent": "integrasjon@uib.no",
        "tittel": "Person"
      },
      "links": {}
    },
    "klassifikasjonssystem-temp-id-Administrativ enhet": {
      "type": "Klassifikasjonssystem",
      "id": "70837",
      "version": "2",
      "fields": {
        "uuid": "2a1d682a-68aa-40a7-b6fe-76bdfc48900e",
        "opprettetDato": "2022-11-09T17:33:55.279+0100",
        "opprettetAv": "UiB ITA",
        "opprettetAvBrukerIdent": "integrasjon@uib.no",
        "tittel": "Administrativ enhet"
      },
      "links": {}
    }
  }
}