{
  "results": [
    {
      "type": "Plan",
      "field": "lovreferanse",
      "values": []
    },
    {
      "type": "Plan",
      "field": "plantype",
      "values": []
    },
    {
      "type": "Plan",
      "field": "planstatus",
      "values": []
    },
    {
      "type": "Korrespondansepart",
      "field": "korrespondanseparttype",
      "values": [
        {
          "code": "IK",
          "name": "Intern kopimottaker",
          "description": null
        },
        {
          "code": "IM",
          "name": "Intern mottaker",
          "description": null
        },
        {
          "code": "EK",
          "name": "Kopimottaker",
          "description": null
        },
        {
          "code": "GM",
          "name": "Gruppemottaker",
          "description": null
        },
        {
          "code": "EM",
          "name": "Mottaker",
          "description": null
        },
        {
          "code": "IA",
          "name": "Intern avsender",
          "description": null
        },
        {
          "code": "EA",
          "name": "Avsender",
          "description": null
        }
      ]
    },
    {
      "type": "Korrespondansepart",
      "field": "ekspederingskanal",
      "values": [
        {
          "code": "S",
          "name": "SvarUt",
          "description": null
        },
        {
          "code": "E",
          "name": "E-post",
          "description": null
        },
        {
          "code": "U",
          "name": "Utskrift",
          "description": null
        }
      ]
    },
    {
      "type": "Korrespondansepart",
      "field": "administrativEnhet",
      "values": [
        {
          "code": "SeksjonforutdanningiGjvik",
          "name": "Seksjon for utdanning i Gj\u00f8vik",
          "description": ""
        },
        {
          "code": "Seksjonforutdanningilesund",
          "name": "Seksjon for utdanning i \u00c5lesund",
          "description": ""
        },
        {
          "code": "Seksjonforetter-ogvidereutdanning",
          "name": "Seksjon for etter- og videreutdanning",
          "description": ""
        },
        {
          "code": "HFfakultetsadministrasjon",
          "name": "HF fakultetsadministrasjon",
          "description": ""
        },
        {
          "code": "TestDepartment",
          "name": "Test Department",
          "description": ""
        },
        {
          "code": "Avdelingforvirksomhetsstyring",
          "name": "Avdeling for virksomhetsstyring",
          "description": ""
        },
        {
          "code": "Seksjonforbygningsdrift",
          "name": "Seksjon for bygningsdrift",
          "description": ""
        },
        {
          "code": "Instituttformusikk",
          "name": "Institutt for musikk",
          "description": ""
        },
        {
          "code": "ADfakultetsadministrasjon",
          "name": "AD fakultetsadministrasjon",
          "description": ""
        },
        {
          "code": "Avdelingfordokumentasjonsforvaltning",
          "name": "Avdeling for dokumentasjonsforvaltning",
          "description": ""
        },
        {
          "code": "IEfakultetsadministrasjon",
          "name": "IE fakultetsadministrasjon",
          "description": ""
        },
        {
          "code": "Norgesteknisk-naturvitenskapeligeuniversitet",
          "name": "Norges teknisk-naturvitenskapelige universitet",
          "description": ""
        },
        {
          "code": "Avdelingforstudieadministrasjon",
          "name": "Avdeling for studieadministrasjon",
          "description": ""
        },
        {
          "code": "Avdelingforstudenttjenester",
          "name": "Avdeling for studenttjenester",
          "description": ""
        },
        {
          "code": "Department2",
          "name": "Department 2",
          "description": ""
        },
        {
          "code": "Bibliotekseksjonilesund",
          "name": "Bibliotekseksjon i \u00c5lesund",
          "description": ""
        },
        {
          "code": "BibliotekseksjoniGjvik",
          "name": "Bibliotekseksjon i Gj\u00f8vik",
          "description": ""
        },
        {
          "code": "Avdelingforutdanningskvalitet",
          "name": "Avdeling for utdanningskvalitet",
          "description": ""
        },
        {
          "code": "Seksjonforlringssttte",
          "name": "Seksjon for l\u00e6ringsst\u00f8tte",
          "description": ""
        },
        {
          "code": "Viserektorlesund",
          "name": "Viserektor \u00c5lesund",
          "description": ""
        },
        {
          "code": "Direktrfororganisasjonoginfrastruktur",
          "name": "Direkt\u00f8r for organisasjon og infrastruktur",
          "description": ""
        },
        {
          "code": "MHfakultetsadministrasjon",
          "name": "MH fakultetsadministrasjon",
          "description": ""
        },
        {
          "code": "Internasjonalseksjon",
          "name": "Internasjonal seksjon",
          "description": ""
        },
        {
          "code": "Instituttformodernesamfunnshistorie",
          "name": "Institutt for moderne samfunnshistorie",
          "description": ""
        },
        {
          "code": "IT-avdelingen",
          "name": "IT-avdelingen",
          "description": "2"
        },
        {
          "code": "Instituttforsprkoglitteratur",
          "name": "Institutt for spr\u00e5k og litteratur",
          "description": ""
        },
        {
          "code": "Direktrorganisasjonoginfrastruktur",
          "name": "Direkt\u00f8r organisasjon og infrastruktur",
          "description": "2"
        },
        {
          "code": "HR-ogHMS-avdelingen",
          "name": "HR- og HMS-avdelingen",
          "description": ""
        },
        {
          "code": "Universitetsavisa",
          "name": "Universitetsavisa",
          "description": ""
        },
        {
          "code": "adm",
          "name": "Administrasjon123",
          "description": "Admin"
        }
      ]
    },
    {
      "type": "Dokumentversjon",
      "field": "variantformat",
      "values": [
        {
          "code": "P",
          "name": "Produksjonsformat",
          "description": null
        },
        {
          "code": "A",
          "name": "Arkivformat",
          "description": null
        }
      ]
    },
    {
      "type": "Merknad",
      "field": "merknadstype",
      "values": [
        {
          "code": "IMER",
          "name": "Intern merknad",
          "description": null
        },
        {
          "code": "MER",
          "name": "Merknad",
          "description": null
        }
      ]
    },
    {
      "type": "Moeteregistrering",
      "field": "moeteregistreringstype",
      "values": [
        {
          "code": "B",
          "name": "M\u00f8tebok",
          "description": null
        },
        {
          "code": "MP",
          "name": "M\u00f8teprotokoll",
          "description": null
        },
        {
          "code": "SF",
          "name": "Saksframlegg",
          "description": null
        },
        {
          "code": "D",
          "name": "Vedtak i m\u00f8tesak",
          "description": null
        },
        {
          "code": "VL",
          "name": "Vedlegg til m\u00f8tesak",
          "description": null
        },
        {
          "code": "SL",
          "name": "Saksliste",
          "description": null
        },
        {
          "code": "MI",
          "name": "M\u00f8teinnkalling",
          "description": null
        },
        {
          "code": "M",
          "name": "M\u00f8tereferat",
          "description": null
        },
        {
          "code": "SP",
          "name": "Saksprotokoll",
          "description": null
        },
        {
          "code": "N",
          "name": "Notat til politisk utvalg",
          "description": null
        },
        {
          "code": "O",
          "name": "Oversikt over deltakere, representanter og medlemmer i utvalg, r\u00e5d og m\u00f8ter",
          "description": null
        }
      ]
    },
    {
      "type": "Moeteregistrering",
      "field": "skjerming",
      "values": [
        {
          "code": "TEST",
          "name": "TEST",
          "description": ""
        },
        {
          "code": "TSC1",
          "name": "Some screening code",
          "description": "Screening code description"
        }
      ]
    },
    {
      "type": "Moeteregistrering",
      "field": "kassasjonshjemmel",
      "values": []
    },
    {
      "type": "Moeteregistrering",
      "field": "dokumentmedium",
      "values": [
        {
          "code": "E",
          "name": "Elektronisk arkiv",
          "description": null
        },
        {
          "code": "PA",
          "name": "Administrasjon1",
          "description": "Admin"
        }
      ]
    },
    {
      "type": "Moeteregistrering",
      "field": "moeteregistreringsstatus",
      "values": []
    },
    {
      "type": "Moeteregistrering",
      "field": "kassasjonsvedtak",
      "values": [
        {
          "code": "B",
          "name": "Bevares",
          "description": null
        },
        {
          "code": "V",
          "name": "Vurderes senere",
          "description": null
        },
        {
          "code": "K",
          "name": "Kasseres",
          "description": null
        }
      ]
    },
    {
      "type": "Moeteregistrering",
      "field": "administrativEnhet",
      "values": [
        {
          "code": "SeksjonforutdanningiGjvik",
          "name": "Seksjon for utdanning i Gj\u00f8vik",
          "description": ""
        },
        {
          "code": "Seksjonforutdanningilesund",
          "name": "Seksjon for utdanning i \u00c5lesund",
          "description": ""
        },
        {
          "code": "Seksjonforetter-ogvidereutdanning",
          "name": "Seksjon for etter- og videreutdanning",
          "description": ""
        },
        {
          "code": "HFfakultetsadministrasjon",
          "name": "HF fakultetsadministrasjon",
          "description": ""
        },
        {
          "code": "TestDepartment",
          "name": "Test Department",
          "description": ""
        },
        {
          "code": "Avdelingforvirksomhetsstyring",
          "name": "Avdeling for virksomhetsstyring",
          "description": ""
        },
        {
          "code": "Seksjonforbygningsdrift",
          "name": "Seksjon for bygningsdrift",
          "description": ""
        },
        {
          "code": "Instituttformusikk",
          "name": "Institutt for musikk",
          "description": ""
        },
        {
          "code": "ADfakultetsadministrasjon",
          "name": "AD fakultetsadministrasjon",
          "description": ""
        },
        {
          "code": "Avdelingfordokumentasjonsforvaltning",
          "name": "Avdeling for dokumentasjonsforvaltning",
          "description": ""
        },
        {
          "code": "IEfakultetsadministrasjon",
          "name": "IE fakultetsadministrasjon",
          "description": ""
        },
        {
          "code": "Norgesteknisk-naturvitenskapeligeuniversitet",
          "name": "Norges teknisk-naturvitenskapelige universitet",
          "description": ""
        },
        {
          "code": "Avdelingforstudieadministrasjon",
          "name": "Avdeling for studieadministrasjon",
          "description": ""
        },
        {
          "code": "Avdelingforstudenttjenester",
          "name": "Avdeling for studenttjenester",
          "description": ""
        },
        {
          "code": "Department2",
          "name": "Department 2",
          "description": ""
        },
        {
          "code": "Bibliotekseksjonilesund",
          "name": "Bibliotekseksjon i \u00c5lesund",
          "description": ""
        },
        {
          "code": "BibliotekseksjoniGjvik",
          "name": "Bibliotekseksjon i Gj\u00f8vik",
          "description": ""
        },
        {
          "code": "Avdelingforutdanningskvalitet",
          "name": "Avdeling for utdanningskvalitet",
          "description": ""
        },
        {
          "code": "Seksjonforlringssttte",
          "name": "Seksjon for l\u00e6ringsst\u00f8tte",
          "description": ""
        },
        {
          "code": "Viserektorlesund",
          "name": "Viserektor \u00c5lesund",
          "description": ""
        },
        {
          "code": "Direktrfororganisasjonoginfrastruktur",
          "name": "Direkt\u00f8r for organisasjon og infrastruktur",
          "description": ""
        },
        {
          "code": "MHfakultetsadministrasjon",
          "name": "MH fakultetsadministrasjon",
          "description": ""
        },
        {
          "code": "Internasjonalseksjon",
          "name": "Internasjonal seksjon",
          "description": ""
        },
        {
          "code": "Instituttformodernesamfunnshistorie",
          "name": "Institutt for moderne samfunnshistorie",
          "description": ""
        },
        {
          "code": "IT-avdelingen",
          "name": "IT-avdelingen",
          "description": "2"
        },
        {
          "code": "Instituttforsprkoglitteratur",
          "name": "Institutt for spr\u00e5k og litteratur",
          "description": ""
        },
        {
          "code": "Direktrorganisasjonoginfrastruktur",
          "name": "Direkt\u00f8r organisasjon og infrastruktur",
          "description": "2"
        },
        {
          "code": "HR-ogHMS-avdelingen",
          "name": "HR- og HMS-avdelingen",
          "description": ""
        },
        {
          "code": "Universitetsavisa",
          "name": "Universitetsavisa",
          "description": ""
        },
        {
          "code": "adm",
          "name": "Administrasjon123",
          "description": "Admin"
        }
      ]
    },
    {
      "type": "Moeteregistrering",
      "field": "moetesakstype",
      "values": [
        {
          "code": "RS",
          "name": "Referatsak",
          "description": null
        },
        {
          "code": "PS",
          "name": "Politisk sak",
          "description": null
        },
        {
          "code": "U",
          "name": "Uregistrert sak",
          "description": null
        },
        {
          "code": "FO",
          "name": "Interpellasjon",
          "description": null
        },
        {
          "code": "DS",
          "name": "Delegert m\u00f8tesak",
          "description": null
        }
      ]
    },
    {
      "type": "Dokumentflyt",
      "field": "flytStatus",
      "values": [
        {
          "code": "S",
          "name": "Sendt tilbake til saksbehandler med kommentarer",
          "description": null
        },
        {
          "code": "G",
          "name": "Godkjent",
          "description": null
        },
        {
          "code": "I",
          "name": "Ikke godkjent",
          "description": null
        }
      ]
    },
    {
      "type": "Moetemappe",
      "field": "kassasjonshjemmel",
      "values": []
    },
    {
      "type": "Moetemappe",
      "field": "skjerming",
      "values": [
        {
          "code": "TEST",
          "name": "TEST",
          "description": ""
        },
        {
          "code": "TSC1",
          "name": "Some screening code",
          "description": "Screening code description"
        }
      ]
    },
    {
      "type": "Moetemappe",
      "field": "mappetype",
      "values": []
    },
    {
      "type": "Moetemappe",
      "field": "dokumentmedium",
      "values": [
        {
          "code": "E",
          "name": "Elektronisk arkiv",
          "description": null
        },
        {
          "code": "PA",
          "name": "Administrasjon1",
          "description": "Admin"
        }
      ]
    },
    {
      "type": "Moetemappe",
      "field": "kassasjonsvedtak",
      "values": [
        {
          "code": "B",
          "name": "Bevares",
          "description": null
        },
        {
          "code": "V",
          "name": "Vurderes senere",
          "description": null
        },
        {
          "code": "K",
          "name": "Kasseres",
          "description": null
        }
      ]
    },
    {
      "type": "Journalpost",
      "field": "journalstatus",
      "values": [
        {
          "code": "A",
          "name": "Arkivert",
          "description": null
        },
        {
          "code": "R",
          "name": "Reservert dokument",
          "description": null
        },
        {
          "code": "S",
          "name": "Saksbehandler har registrert innkommet dokument",
          "description": null
        },
        {
          "code": "E",
          "name": "Ekspedert",
          "description": null
        },
        {
          "code": "U",
          "name": "Utg\u00e5r",
          "description": null
        },
        {
          "code": "F",
          "name": "Ferdigstilt fra saksbehandler",
          "description": null
        },
        {
          "code": "G",
          "name": "Godkjent av leder",
          "description": null
        },
        {
          "code": "J",
          "name": "Journalf\u00f8rt",
          "description": null
        },
        {
          "code": "M",
          "name": "Midlertidig registrering av innkommet dokument",
          "description": null
        }
      ]
    },
    {
      "type": "Journalpost",
      "field": "skjerming",
      "values": [
        {
          "code": "TEST",
          "name": "TEST",
          "description": ""
        },
        {
          "code": "TSC1",
          "name": "Some screening code",
          "description": "Screening code description"
        }
      ]
    },
    {
      "type": "Journalpost",
      "field": "kassasjonshjemmel",
      "values": []
    },
    {
      "type": "Journalpost",
      "field": "dokumentmedium",
      "values": [
        {
          "code": "E",
          "name": "Elektronisk arkiv",
          "description": null
        },
        {
          "code": "PA",
          "name": "Administrasjon1",
          "description": "Admin"
        }
      ]
    },
    {
      "type": "Journalpost",
      "field": "kassasjonsvedtak",
      "values": [
        {
          "code": "B",
          "name": "Bevares",
          "description": null
        },
        {
          "code": "V",
          "name": "Vurderes senere",
          "description": null
        },
        {
          "code": "K",
          "name": "Kasseres",
          "description": null
        }
      ]
    },
    {
      "type": "Journalpost",
      "field": "journalposttype",
      "values": [
        {
          "code": "S",
          "name": "Saksframlegg",
          "description": null
        },
        {
          "code": "U",
          "name": "Utg\u00e5ende dokument",
          "description": null
        },
        {
          "code": "X",
          "name": "Organinternt dokument uten oppf\u00f8lging",
          "description": null
        },
        {
          "code": "I",
          "name": "Inng\u00e5ende dokument",
          "description": null
        },
        {
          "code": "N",
          "name": "Organinternt dokument for oppf\u00f8lging",
          "description": null
        }
      ]
    },
    {
      "type": "Arkiv",
      "field": "arkivstatus",
      "values": [
        {
          "code": "A",
          "name": "Avsluttet",
          "description": null
        },
        {
          "code": "O",
          "name": "Opprettet",
          "description": null
        }
      ]
    },
    {
      "type": "Arkiv",
      "field": "dokumentmedium",
      "values": [
        {
          "code": "E",
          "name": "Elektronisk arkiv",
          "description": null
        },
        {
          "code": "PA",
          "name": "Administrasjon1",
          "description": "Admin"
        }
      ]
    },
    {
      "type": "Dokument",
      "field": "dokumenttype",
      "values": [
        {
          "code": "vedtak",
          "name": "Vedtak",
          "description": ""
        },
        {
          "code": "inngaaende_kommentar",
          "name": "Kommentar fra innsender",
          "description": ""
        },
        {
          "code": "inngaaende_sak",
          "name": "Opprinnelig informasjon fra innsender",
          "description": ""
        },
        {
          "code": "utgaaende_kommentar",
          "name": "Kommentar fra saksbehandler",
          "description": ""
        },
        {
          "code": "saksframlegg",
          "name": "Saksframlegg",
          "description": ""
        },
        {
          "code": "tilleggsdokumentasjon",
          "name": "Tilleggsinformasjon fra innsender",
          "description": ""
        },
        {
          "code": "n_notat",
          "name": "N-Notat",
          "description": ""
        }
      ]
    },
    {
      "type": "Dokument",
      "field": "skjerming",
      "values": [
        {
          "code": "TEST",
          "name": "TEST",
          "description": ""
        },
        {
          "code": "TSC1",
          "name": "Some screening code",
          "description": "Screening code description"
        }
      ]
    },
    {
      "type": "Dokument",
      "field": "kassasjonshjemmel",
      "values": [
        {
          "code": "AF",
          "navn": "Arkivforskrift",
          "description": null
        },
        {
          "code": "EA",
          "navn": "Enkeltvettak fra arkivverket",
          "description": null
        },
        {
          "code": "BK",
          "navn": "Bevaring og kassasjons for sektoren",
          "description": null
        }
      ]
    },
    {
      "type": "Dokument",
      "field": "dokumentmedium",
      "values": [
        {
          "code": "E",
          "name": "Elektronisk arkiv",
          "description": null
        },
        {
          "code": "PA",
          "name": "Administrasjon1",
          "description": "Admin"
        }
      ]
    },
    {
      "type": "Dokument",
      "field": "dokumentstatus",
      "values": [
        {
          "code": "B",
          "name": "Dokumentet er under redigering",
          "description": null
        },
        {
          "code": "F",
          "name": "Dokumentet er ferdigstilt",
          "description": null
        }
      ]
    },
    {
      "type": "Dokument",
      "field": "kassasjonsvedtak",
      "values": [
        {
          "code": "B",
          "name": "Bevares",
          "description": null
        },
        {
          "code": "V",
          "name": "Vurderes senere",
          "description": null
        },
        {
          "code": "K",
          "name": "Kasseres",
          "description": null
        }
      ]
    },
    {
      "type": "Dokument",
      "field": "tilknyttetRegistreringSom",
      "values": [
        {
          "code": "V",
          "name": "Vedlegg",
          "description": null
        },
        {
          "code": "H",
          "name": "Hoveddokument",
          "description": null
        }
      ]
    },
    {
      "type": "Saksmappe",
      "field": "kassasjonshjemmel",
      "values": []
    },
    {
      "type": "Saksmappe",
      "field": "skjerming",
      "values": [
        {
          "code": "TEST",
          "name": "TEST",
          "description": ""
        },
        {
          "code": "TSC1",
          "name": "Some screening code",
          "description": "Screening code description"
        }
      ]
    },
    {
      "type": "Saksmappe",
      "field": "mappetype",
      "values": []
    },
    {
      "type": "Saksmappe",
      "field": "dokumentmedium",
      "values": [
        {
          "code": "E",
          "name": "Elektronisk arkiv",
          "description": null
        },
        {
          "code": "PA",
          "name": "Administrasjon1",
          "description": "Admin"
        }
      ]
    },
    {
      "type": "Saksmappe",
      "field": "kassasjonsvedtak",
      "values": [
        {
          "code": "B",
          "name": "Bevares",
          "description": null
        },
        {
          "code": "V",
          "name": "Vurderes senere",
          "description": null
        },
        {
          "code": "K",
          "name": "Kasseres",
          "description": null
        }
      ]
    },
    {
      "type": "Saksmappe",
      "field": "administrativEnhet",
      "values": [
        {
          "code": "SeksjonforutdanningiGjvik",
          "name": "Seksjon for utdanning i Gj\u00f8vik",
          "description": ""
        },
        {
          "code": "Seksjonforutdanningilesund",
          "name": "Seksjon for utdanning i \u00c5lesund",
          "description": ""
        },
        {
          "code": "Seksjonforetter-ogvidereutdanning",
          "name": "Seksjon for etter- og videreutdanning",
          "description": ""
        },
        {
          "code": "HFfakultetsadministrasjon",
          "name": "HF fakultetsadministrasjon",
          "description": ""
        },
        {
          "code": "TestDepartment",
          "name": "Test Department",
          "description": ""
        },
        {
          "code": "Avdelingforvirksomhetsstyring",
          "name": "Avdeling for virksomhetsstyring",
          "description": ""
        },
        {
          "code": "Seksjonforbygningsdrift",
          "name": "Seksjon for bygningsdrift",
          "description": ""
        },
        {
          "code": "Instituttformusikk",
          "name": "Institutt for musikk",
          "description": ""
        },
        {
          "code": "ADfakultetsadministrasjon",
          "name": "AD fakultetsadministrasjon",
          "description": ""
        },
        {
          "code": "Avdelingfordokumentasjonsforvaltning",
          "name": "Avdeling for dokumentasjonsforvaltning",
          "description": ""
        },
        {
          "code": "IEfakultetsadministrasjon",
          "name": "IE fakultetsadministrasjon",
          "description": ""
        },
        {
          "code": "Norgesteknisk-naturvitenskapeligeuniversitet",
          "name": "Norges teknisk-naturvitenskapelige universitet",
          "description": ""
        },
        {
          "code": "Avdelingforstudieadministrasjon",
          "name": "Avdeling for studieadministrasjon",
          "description": ""
        },
        {
          "code": "Avdelingforstudenttjenester",
          "name": "Avdeling for studenttjenester",
          "description": ""
        },
        {
          "code": "Department2",
          "name": "Department 2",
          "description": ""
        },
        {
          "code": "Bibliotekseksjonilesund",
          "name": "Bibliotekseksjon i \u00c5lesund",
          "description": ""
        },
        {
          "code": "BibliotekseksjoniGjvik",
          "name": "Bibliotekseksjon i Gj\u00f8vik",
          "description": ""
        },
        {
          "code": "Avdelingforutdanningskvalitet",
          "name": "Avdeling for utdanningskvalitet",
          "description": ""
        },
        {
          "code": "Seksjonforlringssttte",
          "name": "Seksjon for l\u00e6ringsst\u00f8tte",
          "description": ""
        },
        {
          "code": "Viserektorlesund",
          "name": "Viserektor \u00c5lesund",
          "description": ""
        },
        {
          "code": "Direktrfororganisasjonoginfrastruktur",
          "name": "Direkt\u00f8r for organisasjon og infrastruktur",
          "description": ""
        },
        {
          "code": "MHfakultetsadministrasjon",
          "name": "MH fakultetsadministrasjon",
          "description": ""
        },
        {
          "code": "Internasjonalseksjon",
          "name": "Internasjonal seksjon",
          "description": ""
        },
        {
          "code": "Instituttformodernesamfunnshistorie",
          "name": "Institutt for moderne samfunnshistorie",
          "description": ""
        },
        {
          "code": "IT-avdelingen",
          "name": "IT-avdelingen",
          "description": "2"
        },
        {
          "code": "Instituttforsprkoglitteratur",
          "name": "Institutt for spr\u00e5k og litteratur",
          "description": ""
        },
        {
          "code": "Direktrorganisasjonoginfrastruktur",
          "name": "Direkt\u00f8r organisasjon og infrastruktur",
          "description": "2"
        },
        {
          "code": "HR-ogHMS-avdelingen",
          "name": "HR- og HMS-avdelingen",
          "description": ""
        },
        {
          "code": "Universitetsavisa",
          "name": "Universitetsavisa",
          "description": ""
        },
        {
          "code": "adm",
          "name": "Administrasjon123",
          "description": "Admin"
        }
      ]
    },
    {
      "type": "Saksmappe",
      "field": "saksstatus",
      "values": [
        {
          "code": "P",
          "name": "Unntatt prosesstyring",
          "description": null
        },
        {
          "code": "A",
          "name": "Avsluttet",
          "description": null
        },
        {
          "code": "B",
          "name": "Under behandling",
          "description": null
        },
        {
          "code": "R",
          "name": "Opprettet av saksbehandler",
          "description": null
        },
        {
          "code": "S",
          "name": "Avsluttet av saksbehandler",
          "description": null
        },
        {
          "code": "U",
          "name": "Utg\u00e5r",
          "description": null
        },
        {
          "code": "F",
          "name": "Ferdig fra saksbehandler",
          "description": null
        }
      ]
    },
    {
      "type": "Mappe",
      "field": "kassasjonshjemmel",
      "values": []
    },
    {
      "type": "Mappe",
      "field": "skjerming",
      "values": [
        {
          "code": "TEST",
          "name": "TEST",
          "description": ""
        },
        {
          "code": "TSC1",
          "name": "Some screening code",
          "description": "Screening code description"
        }
      ]
    },
    {
      "type": "Mappe",
      "field": "mappetype",
      "values": []
    },
    {
      "type": "Mappe",
      "field": "dokumentmedium",
      "values": [
        {
          "code": "E",
          "name": "Elektronisk arkiv",
          "description": null
        },
        {
          "code": "PA",
          "name": "Administrasjon1",
          "description": "Admin"
        }
      ]
    },
    {
      "type": "Mappe",
      "field": "kassasjonsvedtak",
      "values": [
        {
          "code": "B",
          "name": "Bevares",
          "description": null
        },
        {
          "code": "V",
          "name": "Vurderes senere",
          "description": null
        },
        {
          "code": "K",
          "name": "Kasseres",
          "description": null
        }
      ]
    },
    {
      "type": "Presedens",
      "field": "presedensStatus",
      "values": [
        {
          "code": "F",
          "name": "Foreldet",
          "description": null
        },
        {
          "code": "G",
          "name": "Gjeldende",
          "description": null
        }
      ]
    },
    {
      "type": "Presedens",
      "field": "presedensHjemmel",
      "values": []
    },
    {
      "type": "Presedens",
      "field": "rettskildefaktor",
      "values": []
    },
    {
      "type": "Arkivdel",
      "field": "skjerming",
      "values": [
        {
          "code": "TEST",
          "name": "TEST",
          "description": ""
        },
        {
          "code": "TSC1",
          "name": "Some screening code",
          "description": "Screening code description"
        }
      ]
    },
    {
      "type": "Arkivdel",
      "field": "dokumentmedium",
      "values": [
        {
          "code": "E",
          "name": "Elektronisk arkiv",
          "description": null
        },
        {
          "code": "PA",
          "name": "Administrasjon1",
          "description": "Admin"
        }
      ]
    },
    {
      "type": "Arkivdel",
      "field": "arkivdelstatus",
      "values": [
        {
          "code": "P",
          "name": "Avsluttet periode",
          "description": null
        },
        {
          "code": "A",
          "name": "Aktiv periode",
          "description": null
        },
        {
          "code": "U",
          "name": "Uaktuelle mapper",
          "description": null
        },
        {
          "code": "O",
          "name": "Overlappingsperiode",
          "description": null
        }
      ]
    },
    {
      "type": "Klasse",
      "field": "skjerming",
      "values": [
        {
          "code": "TEST",
          "name": "TEST",
          "description": ""
        },
        {
          "code": "TSC1",
          "name": "Some screening code",
          "description": "Screening code description"
        }
      ]
    },
    {
      "type": "Klasse",
      "field": "kassasjonshjemmel",
      "values": []
    },
    {
      "type": "Klasse",
      "field": "kassasjonsvedtak",
      "values": [
        {
          "code": "B",
          "name": "Bevares",
          "description": null
        },
        {
          "code": "V",
          "name": "Vurderes senere",
          "description": null
        },
        {
          "code": "K",
          "name": "Kasseres",
          "description": null
        }
      ]
    },
    {
      "type": "Avskrivning",
      "field": "avskrivningsmaate",
      "values": [
        {
          "code": "TE",
          "name": "Tatt til etterretning",
          "description": null
        },
        {
          "code": "BU",
          "name": "Besvart med brev",
          "description": null
        },
        {
          "code": "BE",
          "name": "Besvart med e-post",
          "description": null
        },
        {
          "code": "TO",
          "name": "Tatt til orientering",
          "description": null
        },
        {
          "code": "TLF",
          "name": "Besvart p\u00e5 telefon",
          "description": null
        }
      ]
    },
    {
      "type": "Basisregistrering",
      "field": "skjerming",
      "values": [
        {
          "code": "TEST",
          "name": "TEST",
          "description": ""
        },
        {
          "code": "TSC1",
          "name": "Some screening code",
          "description": "Screening code description"
        }
      ]
    },
    {
      "type": "Basisregistrering",
      "field": "kassasjonshjemmel",
      "values": []
    },
    {
      "type": "Basisregistrering",
      "field": "dokumentmedium",
      "values": [
        {
          "code": "E",
          "name": "Elektronisk arkiv",
          "description": null
        },
        {
          "code": "PA",
          "name": "Administrasjon1",
          "description": "Admin"
        }
      ]
    },
    {
      "type": "Basisregistrering",
      "field": "kassasjonsvedtak",
      "values": [
        {
          "code": "B",
          "name": "Bevares",
          "description": null
        },
        {
          "code": "V",
          "name": "Vurderes senere",
          "description": null
        },
        {
          "code": "K",
          "name": "Kasseres",
          "description": null
        }
      ]
    }
  ]
}